systolic_array.vcd
$version Generated by VerilatedVcd $end
$date Sat Jun 27 17:04:39 2026 $end
$timescale 1ps $end

 $scope module TOP $end
  $var wire 32 n! act_col_in [31:0] $end
  $var wire  1 i! clk $end
  $var wire 320 r! psum_array_out [319:0] $end
  $var wire 80 o! psum_bottom_out [79:0] $end
  $var wire  1 j! reset $end
  $var wire 32 m! weight_data [31:0] $end
  $var wire  1 k! weight_load $end
  $var wire  2 l! weight_row_sel [1:0] $end
  $scope module systolic_array $end
   $var wire 32 #" DATA_W [31:0] $end
   $var wire 32 "" N [31:0] $end
   $var wire 32 $" PSUM_W [31:0] $end
   $var wire 32 %" SKEW_EN [31:0] $end
   $var wire 32 n! act_col_in [31:0] $end
   $var wire  8 3 act_h[0][0] [7:0] $end
   $var wire  8 4 act_h[0][1] [7:0] $end
   $var wire  8 5 act_h[0][2] [7:0] $end
   $var wire  8 6 act_h[0][3] [7:0] $end
   $var wire  8 7 act_h[0][4] [7:0] $end
   $var wire  8 8 act_h[1][0] [7:0] $end
   $var wire  8 9 act_h[1][1] [7:0] $end
   $var wire  8 : act_h[1][2] [7:0] $end
   $var wire  8 ; act_h[1][3] [7:0] $end
   $var wire  8 < act_h[1][4] [7:0] $end
   $var wire  8 = act_h[2][0] [7:0] $end
   $var wire  8 > act_h[2][1] [7:0] $end
   $var wire  8 ? act_h[2][2] [7:0] $end
   $var wire  8 @ act_h[2][3] [7:0] $end
   $var wire  8 A act_h[2][4] [7:0] $end
   $var wire  8 B act_h[3][0] [7:0] $end
   $var wire  8 C act_h[3][1] [7:0] $end
   $var wire  8 D act_h[3][2] [7:0] $end
   $var wire  8 E act_h[3][3] [7:0] $end
   $var wire  8 F act_h[3][4] [7:0] $end
   $var wire  1 i! clk $end
   $var wire 320 r! psum_array_out [319:0] $end
   $var wire 80 o! psum_bottom_out [79:0] $end
   $var wire 20 g psum_v[0][0] [19:0] $end
   $var wire 20 h psum_v[0][1] [19:0] $end
   $var wire 20 i psum_v[0][2] [19:0] $end
   $var wire 20 j psum_v[0][3] [19:0] $end
   $var wire 20 k psum_v[1][0] [19:0] $end
   $var wire 20 l psum_v[1][1] [19:0] $end
   $var wire 20 m psum_v[1][2] [19:0] $end
   $var wire 20 n psum_v[1][3] [19:0] $end
   $var wire 20 o psum_v[2][0] [19:0] $end
   $var wire 20 p psum_v[2][1] [19:0] $end
   $var wire 20 q psum_v[2][2] [19:0] $end
   $var wire 20 r psum_v[2][3] [19:0] $end
   $var wire 20 s psum_v[3][0] [19:0] $end
   $var wire 20 t psum_v[3][1] [19:0] $end
   $var wire 20 u psum_v[3][2] [19:0] $end
   $var wire 20 v psum_v[3][3] [19:0] $end
   $var wire 20 w psum_v[4][0] [19:0] $end
   $var wire 20 x psum_v[4][1] [19:0] $end
   $var wire 20 y psum_v[4][2] [19:0] $end
   $var wire 20 z psum_v[4][3] [19:0] $end
   $var wire  1 j! reset $end
   $var wire 32 m! weight_data [31:0] $end
   $var wire  1 k! weight_load $end
   $var wire  2 l! weight_row_sel [1:0] $end
   $scope module g_row[0] $end
    $scope module g_col[0] $end
     $scope module pe_inst $end
      $var wire 32 #" DATA_W [31:0] $end
      $var wire 32 $" PSUM_W [31:0] $end
      $var wire  8 W act_in [7:0] $end
      $var wire  8 *! act_out [7:0] $end
      $var wire  1 i! clk $end
      $var wire 20 )! psum_in [19:0] $end
      $var wire 20 +! psum_out [19:0] $end
      $var wire  1 j! reset $end
      $var wire  8 ,! weight [7:0] $end
      $var wire  8 |! weight_in [7:0] $end
      $var wire  1 # weight_load $end
     $upscope $end
    $upscope $end
    $scope module g_col[1] $end
     $scope module pe_inst $end
      $var wire 32 #" DATA_W [31:0] $end
      $var wire 32 $" PSUM_W [31:0] $end
      $var wire  8 X act_in [7:0] $end
      $var wire  8 .! act_out [7:0] $end
      $var wire  1 i! clk $end
      $var wire 20 -! psum_in [19:0] $end
      $var wire 20 /! psum_out [19:0] $end
      $var wire  1 j! reset $end
      $var wire  8 0! weight [7:0] $end
      $var wire  8 }! weight_in [7:0] $end
      $var wire  1 $ weight_load $end
     $upscope $end
    $upscope $end
    $scope module g_col[2] $end
     $scope module pe_inst $end
      $var wire 32 #" DATA_W [31:0] $end
      $var wire 32 $" PSUM_W [31:0] $end
      $var wire  8 Y act_in [7:0] $end
      $var wire  8 2! act_out [7:0] $end
      $var wire  1 i! clk $end
      $var wire 20 1! psum_in [19:0] $end
      $var wire 20 3! psum_out [19:0] $end
      $var wire  1 j! reset $end
      $var wire  8 4! weight [7:0] $end
      $var wire  8 ~! weight_in [7:0] $end
      $var wire  1 % weight_load $end
     $upscope $end
    $upscope $end
    $scope module g_col[3] $end
     $scope module pe_inst $end
      $var wire 32 #" DATA_W [31:0] $end
      $var wire 32 $" PSUM_W [31:0] $end
      $var wire  8 Z act_in [7:0] $end
      $var wire  8 6! act_out [7:0] $end
      $var wire  1 i! clk $end
      $var wire 20 5! psum_in [19:0] $end
      $var wire 20 7! psum_out [19:0] $end
      $var wire  1 j! reset $end
      $var wire  8 8! weight [7:0] $end
      $var wire  8 !" weight_in [7:0] $end
      $var wire  1 & weight_load $end
     $upscope $end
    $upscope $end
   $upscope $end
   $scope module g_row[1] $end
    $scope module g_col[0] $end
     $scope module pe_inst $end
      $var wire 32 #" DATA_W [31:0] $end
      $var wire 32 $" PSUM_W [31:0] $end
      $var wire  8 [ act_in [7:0] $end
      $var wire  8 :! act_out [7:0] $end
      $var wire  1 i! clk $end
      $var wire 20 9! psum_in [19:0] $end
      $var wire 20 ;! psum_out [19:0] $end
      $var wire  1 j! reset $end
      $var wire  8 <! weight [7:0] $end
      $var wire  8 |! weight_in [7:0] $end
      $var wire  1 ' weight_load $end
     $upscope $end
    $upscope $end
    $scope module g_col[1] $end
     $scope module pe_inst $end
      $var wire 32 #" DATA_W [31:0] $end
      $var wire 32 $" PSUM_W [31:0] $end
      $var wire  8 \ act_in [7:0] $end
      $var wire  8 >! act_out [7:0] $end
      $var wire  1 i! clk $end
      $var wire 20 =! psum_in [19:0] $end
      $var wire 20 ?! psum_out [19:0] $end
      $var wire  1 j! reset $end
      $var wire  8 @! weight [7:0] $end
      $var wire  8 }! weight_in [7:0] $end
      $var wire  1 ( weight_load $end
     $upscope $end
    $upscope $end
    $scope module g_col[2] $end
     $scope module pe_inst $end
      $var wire 32 #" DATA_W [31:0] $end
      $var wire 32 $" PSUM_W [31:0] $end
      $var wire  8 ] act_in [7:0] $end
      $var wire  8 B! act_out [7:0] $end
      $var wire  1 i! clk $end
      $var wire 20 A! psum_in [19:0] $end
      $var wire 20 C! psum_out [19:0] $end
      $var wire  1 j! reset $end
      $var wire  8 D! weight [7:0] $end
      $var wire  8 ~! weight_in [7:0] $end
      $var wire  1 ) weight_load $end
     $upscope $end
    $upscope $end
    $scope module g_col[3] $end
     $scope module pe_inst $end
      $var wire 32 #" DATA_W [31:0] $end
      $var wire 32 $" PSUM_W [31:0] $end
      $var wire  8 ^ act_in [7:0] $end
      $var wire  8 F! act_out [7:0] $end
      $var wire  1 i! clk $end
      $var wire 20 E! psum_in [19:0] $end
      $var wire 20 G! psum_out [19:0] $end
      $var wire  1 j! reset $end
      $var wire  8 H! weight [7:0] $end
      $var wire  8 !" weight_in [7:0] $end
      $var wire  1 * weight_load $end
     $upscope $end
    $upscope $end
   $upscope $end
   $scope module g_row[2] $end
    $scope module g_col[0] $end
     $scope module pe_inst $end
      $var wire 32 #" DATA_W [31:0] $end
      $var wire 32 $" PSUM_W [31:0] $end
      $var wire  8 _ act_in [7:0] $end
      $var wire  8 J! act_out [7:0] $end
      $var wire  1 i! clk $end
      $var wire 20 I! psum_in [19:0] $end
      $var wire 20 K! psum_out [19:0] $end
      $var wire  1 j! reset $end
      $var wire  8 L! weight [7:0] $end
      $var wire  8 |! weight_in [7:0] $end
      $var wire  1 + weight_load $end
     $upscope $end
    $upscope $end
    $scope module g_col[1] $end
     $scope module pe_inst $end
      $var wire 32 #" DATA_W [31:0] $end
      $var wire 32 $" PSUM_W [31:0] $end
      $var wire  8 ` act_in [7:0] $end
      $var wire  8 N! act_out [7:0] $end
      $var wire  1 i! clk $end
      $var wire 20 M! psum_in [19:0] $end
      $var wire 20 O! psum_out [19:0] $end
      $var wire  1 j! reset $end
      $var wire  8 P! weight [7:0] $end
      $var wire  8 }! weight_in [7:0] $end
      $var wire  1 , weight_load $end
     $upscope $end
    $upscope $end
    $scope module g_col[2] $end
     $scope module pe_inst $end
      $var wire 32 #" DATA_W [31:0] $end
      $var wire 32 $" PSUM_W [31:0] $end
      $var wire  8 a act_in [7:0] $end
      $var wire  8 R! act_out [7:0] $end
      $var wire  1 i! clk $end
      $var wire 20 Q! psum_in [19:0] $end
      $var wire 20 S! psum_out [19:0] $end
      $var wire  1 j! reset $end
      $var wire  8 T! weight [7:0] $end
      $var wire  8 ~! weight_in [7:0] $end
      $var wire  1 - weight_load $end
     $upscope $end
    $upscope $end
    $scope module g_col[3] $end
     $scope module pe_inst $end
      $var wire 32 #" DATA_W [31:0] $end
      $var wire 32 $" PSUM_W [31:0] $end
      $var wire  8 b act_in [7:0] $end
      $var wire  8 V! act_out [7:0] $end
      $var wire  1 i! clk $end
      $var wire 20 U! psum_in [19:0] $end
      $var wire 20 W! psum_out [19:0] $end
      $var wire  1 j! reset $end
      $var wire  8 X! weight [7:0] $end
      $var wire  8 !" weight_in [7:0] $end
      $var wire  1 . weight_load $end
     $upscope $end
    $upscope $end
   $upscope $end
   $scope module g_row[3] $end
    $scope module g_col[0] $end
     $scope module pe_inst $end
      $var wire 32 #" DATA_W [31:0] $end
      $var wire 32 $" PSUM_W [31:0] $end
      $var wire  8 c act_in [7:0] $end
      $var wire  8 Z! act_out [7:0] $end
      $var wire  1 i! clk $end
      $var wire 20 Y! psum_in [19:0] $end
      $var wire 20 [! psum_out [19:0] $end
      $var wire  1 j! reset $end
      $var wire  8 \! weight [7:0] $end
      $var wire  8 |! weight_in [7:0] $end
      $var wire  1 / weight_load $end
     $upscope $end
    $upscope $end
    $scope module g_col[1] $end
     $scope module pe_inst $end
      $var wire 32 #" DATA_W [31:0] $end
      $var wire 32 $" PSUM_W [31:0] $end
      $var wire  8 d act_in [7:0] $end
      $var wire  8 ^! act_out [7:0] $end
      $var wire  1 i! clk $end
      $var wire 20 ]! psum_in [19:0] $end
      $var wire 20 _! psum_out [19:0] $end
      $var wire  1 j! reset $end
      $var wire  8 `! weight [7:0] $end
      $var wire  8 }! weight_in [7:0] $end
      $var wire  1 0 weight_load $end
     $upscope $end
    $upscope $end
    $scope module g_col[2] $end
     $scope module pe_inst $end
      $var wire 32 #" DATA_W [31:0] $end
      $var wire 32 $" PSUM_W [31:0] $end
      $var wire  8 e act_in [7:0] $end
      $var wire  8 b! act_out [7:0] $end
      $var wire  1 i! clk $end
      $var wire 20 a! psum_in [19:0] $end
      $var wire 20 c! psum_out [19:0] $end
      $var wire  1 j! reset $end
      $var wire  8 d! weight [7:0] $end
      $var wire  8 ~! weight_in [7:0] $end
      $var wire  1 1 weight_load $end
     $upscope $end
    $upscope $end
    $scope module g_col[3] $end
     $scope module pe_inst $end
      $var wire 32 #" DATA_W [31:0] $end
      $var wire 32 $" PSUM_W [31:0] $end
      $var wire  8 f act_in [7:0] $end
      $var wire  8 f! act_out [7:0] $end
      $var wire  1 i! clk $end
      $var wire 20 e! psum_in [19:0] $end
      $var wire 20 g! psum_out [19:0] $end
      $var wire  1 j! reset $end
      $var wire  8 h! weight [7:0] $end
      $var wire  8 !" weight_in [7:0] $end
      $var wire  1 2 weight_load $end
     $upscope $end
    $upscope $end
   $upscope $end
   $scope module g_skew $end
    $var wire  8 G skew_chain[0][0] [7:0] $end
    $var wire  8 H skew_chain[0][1] [7:0] $end
    $var wire  8 I skew_chain[0][2] [7:0] $end
    $var wire  8 J skew_chain[0][3] [7:0] $end
    $var wire  8 K skew_chain[1][0] [7:0] $end
    $var wire  8 L skew_chain[1][1] [7:0] $end
    $var wire  8 M skew_chain[1][2] [7:0] $end
    $var wire  8 N skew_chain[1][3] [7:0] $end
    $var wire  8 O skew_chain[2][0] [7:0] $end
    $var wire  8 P skew_chain[2][1] [7:0] $end
    $var wire  8 Q skew_chain[2][2] [7:0] $end
    $var wire  8 R skew_chain[2][3] [7:0] $end
    $var wire  8 S skew_chain[3][0] [7:0] $end
    $var wire  8 T skew_chain[3][1] [7:0] $end
    $var wire  8 U skew_chain[3][2] [7:0] $end
    $var wire  8 V skew_chain[3][3] [7:0] $end
    $var wire  8 { skew_reg[0][0] [7:0] $end
    $var wire  8 | skew_reg[0][1] [7:0] $end
    $var wire  8 } skew_reg[0][2] [7:0] $end
    $var wire  8 ~ skew_reg[1][0] [7:0] $end
    $var wire  8 !! skew_reg[1][1] [7:0] $end
    $var wire  8 "! skew_reg[1][2] [7:0] $end
    $var wire  8 #! skew_reg[2][0] [7:0] $end
    $var wire  8 $! skew_reg[2][1] [7:0] $end
    $var wire  8 %! skew_reg[2][2] [7:0] $end
    $var wire  8 &! skew_reg[3][0] [7:0] $end
    $var wire  8 '! skew_reg[3][1] [7:0] $end
    $var wire  8 (! skew_reg[3][2] [7:0] $end
   $upscope $end
  $upscope $end
 $upscope $end
$enddefinitions $end


#0
0#
0$
0%
0&
0'
0(
0)
0*
0+
0,
0-
0.
0/
00
01
02
b00000000 3
b00000000 4
b00000000 5
b00000000 6
b00000000 7
b00000000 8
b00000000 9
b00000000 :
b00000000 ;
b00000000 <
b00000000 =
b00000000 >
b00000000 ?
b00000000 @
b00000000 A
b00000000 B
b00000000 C
b00000000 D
b00000000 E
b00000000 F
b00000000 G
b00000000 H
b00000000 I
b00000000 J
b00000000 K
b00000000 L
b00000000 M
b00000000 N
b00000000 O
b00000000 P
b00000000 Q
b00000000 R
b00000000 S
b00000000 T
b00000000 U
b00000000 V
b00000000 W
b00000000 X
b00000000 Y
b00000000 Z
b00000000 [
b00000000 \
b00000000 ]
b00000000 ^
b00000000 _
b00000000 `
b00000000 a
b00000000 b
b00000000 c
b00000000 d
b00000000 e
b00000000 f
b00000000000000000000 g
b00000000000000000000 h
b00000000000000000000 i
b00000000000000000000 j
b00000000000000000000 k
b00000000000000000000 l
b00000000000000000000 m
b00000000000000000000 n
b00000000000000000000 o
b00000000000000000000 p
b00000000000000000000 q
b00000000000000000000 r
b00000000000000000000 s
b00000000000000000000 t
b00000000000000000000 u
b00000000000000000000 v
b00000000000000000000 w
b00000000000000000000 x
b00000000000000000000 y
b00000000000000000000 z
b00000000 {
b00000000 |
b00000000 }
b00000000 ~
b00000000 !!
b00000000 "!
b00000000 #!
b00000000 $!
b00000000 %!
b00000000 &!
b00000000 '!
b00000000 (!
b00000000000000000000 )!
b00000000 *!
b00000000000000000000 +!
b00000000 ,!
b00000000000000000000 -!
b00000000 .!
b00000000000000000000 /!
b00000000 0!
b00000000000000000000 1!
b00000000 2!
b00000000000000000000 3!
b00000000 4!
b00000000000000000000 5!
b00000000 6!
b00000000000000000000 7!
b00000000 8!
b00000000000000000000 9!
b00000000 :!
b00000000000000000000 ;!
b00000000 <!
b00000000000000000000 =!
b00000000 >!
b00000000000000000000 ?!
b00000000 @!
b00000000000000000000 A!
b00000000 B!
b00000000000000000000 C!
b00000000 D!
b00000000000000000000 E!
b00000000 F!
b00000000000000000000 G!
b00000000 H!
b00000000000000000000 I!
b00000000 J!
b00000000000000000000 K!
b00000000 L!
b00000000000000000000 M!
b00000000 N!
b00000000000000000000 O!
b00000000 P!
b00000000000000000000 Q!
b00000000 R!
b00000000000000000000 S!
b00000000 T!
b00000000000000000000 U!
b00000000 V!
b00000000000000000000 W!
b00000000 X!
b00000000000000000000 Y!
b00000000 Z!
b00000000000000000000 [!
b00000000 \!
b00000000000000000000 ]!
b00000000 ^!
b00000000000000000000 _!
b00000000 `!
b00000000000000000000 a!
b00000000 b!
b00000000000000000000 c!
b00000000 d!
b00000000000000000000 e!
b00000000 f!
b00000000000000000000 g!
b00000000 h!
0i!
1j!
0k!
b00 l!
b00000000000000000000000000000000 m!
b00000000000000000000000000000000 n!
b00000000000000000000000000000000000000000000000000000000000000000000000000000000 o!
b00000000000000000000000000000000000000000000000000000000000000000000000000000000000000000000000000000000000000000000000000000000000000000000000000000000000000000000000000000000000000000000000000000000000000000000000000000000000000000000000000000000000000000000000000000000000000000000000000000000000000000000000000000000 r!
b00000000 |!
b00000000 }!
b00000000 ~!
b00000000 !"
b00000000000000000000000000000100 ""
b00000000000000000000000000001000 #"
b00000000000000000000000000010100 $"
b00000000000000000000000000000001 %"
#1
1i!
#2
0i!
#3
1i!
#4
1#
1$
1%
1&
0i!
0j!
1k!
b00001000000001100000010000000010 m!
b00000010 |!
b00000100 }!
b00000110 ~!
b00001000 !"
#5
b00000010 ,!
b00000100 0!
b00000110 4!
b00001000 8!
1i!
#6
0#
0$
0%
0&
1'
1(
1)
1*
0i!
b01 l!
b00010000000011100000110000001010 m!
b00001010 |!
b00001100 }!
b00001110 ~!
b00010000 !"
#7
b00001010 <!
b00001100 @!
b00001110 D!
b00010000 H!
1i!
#8
0'
0(
0)
0*
1+
1,
1-
1.
0i!
b10 l!
b00011000000101100001010000010010 m!
b00010010 |!
b00010100 }!
b00010110 ~!
b00011000 !"
#9
b00010010 L!
b00010100 P!
b00010110 T!
b00011000 X!
1i!
#10
0+
0,
0-
0.
1/
10
11
12
0i!
b11 l!
b00100000000111100001110000011010 m!
b00011010 |!
b00011100 }!
b00011110 ~!
b00100000 !"
#11
b00011010 \!
b00011100 `!
b00011110 d!
b00100000 h!
1i!
#12
0/
00
01
02
b00000001 3
b00000001 G
b00000010 K
b00000011 O
b00000100 S
b00000001 W
0i!
0k!
b00000100000000110000001000000001 n!
#13
b00000001 4
b00000010 8
b00000010 L
b00000011 P
b00000100 T
b00000001 X
b00000010 [
b00000000000000000010 k
b00000010 ~
b00000011 #!
b00000100 &!
b00000001 *!
b00000000000000000010 +!
b00000000000000000010 9!
1i!
b00000000000000000000000000000000000000000000000000000000000000000000000000000000000000000000000000000000000000000000000000000000000000000000000000000000000000000000000000000000000000000000000000000000000000000000000000000000000000000000000000000000000000000000000000000000000000000000000000000000000000000000000000000010 r!
#14
b00000101 3
b00000101 G
b00000110 K
b00000111 O
b00001000 S
b00000101 W
0i!
b00001000000001110000011000000101 n!
#15
b00000101 4
b00000001 5
b00000110 8
b00000010 9
b00000011 =
b00000110 L
b00000111 P
b00000011 Q
b00001000 T
b00000100 U
b00000101 X
b00000001 Y
b00000110 [
b00000010 \
b00000011 _
b00000000000000001010 k
b00000000000000000100 l
b00000000000000010110 o
b00000110 ~
b00000111 #!
b00000011 $!
b00001000 &!
b00000100 '!
b00000101 *!
b00000000000000001010 +!
b00000001 .!
b00000000000000000100 /!
b00000000000000001010 9!
b00000010 :!
b00000000000000010110 ;!
b00000000000000000100 =!
b00000000000000010110 I!
1i!
b00000000000000000000000000000000000000000000000000000000000000000000000000000000000000000000000000000000000000000000000000000000000000000000000000000000000000000000000000000000000000000000000000000000000000000000000000000000000000000001011000000000000000000000000000000000000000000000000000000000010000000000000000001010 r!
#16
b00001001 3
b00001001 G
b00001010 K
b00001011 O
b00001100 S
b00001001 W
0i!
b00001100000010110000101000001001 n!
#17
b00001001 4
b00000101 5
b00000001 6
b00001010 8
b00000110 9
b00000010 :
b00000111 =
b00000011 >
b00000100 B
b00001010 L
b00001011 P
b00000111 Q
b00001100 T
b00001000 U
b00000100 V
b00001001 X
b00000101 Y
b00000001 Z
b00001010 [
b00000110 \
b00000010 ]
b00000111 _
b00000011 `
b00000100 c
b00000000000000010010 k
b00000000000000010100 l
b00000000000000000110 m
b00000000000001000110 o
b00000000000000011100 p
b00000000000001001100 s
b00001010 ~
b00001011 #!
b00000111 $!
b00001100 &!
b00001000 '!
b00000100 (!
b00001001 *!
b00000000000000010010 +!
b00000101 .!
b00000000000000010100 /!
b00000001 2!
b00000000000000000110 3!
b00000000000000010010 9!
b00000110 :!
b00000000000001000110 ;!
b00000000000000010100 =!
b00000010 >!
b00000000000000011100 ?!
b00000000000000000110 A!
b00000000000001000110 I!
b00000011 J!
b00000000000001001100 K!
b00000000000000011100 M!
b00000000000001001100 Y!
1i!
b00000000000000000000000000000000000000000000000000000000000000000000000000000000000000000000000000000000000000000000000000000000000000000000000000000000010011000000000000000000000000000000000000000000000000000000000111000000000000000100011000000000000000000000000000000000000001100000000000000001010000000000000000010010 r!
#18
b00001101 3
b00001101 G
b00001110 K
b00001111 O
b00010000 S
b00001101 W
0i!
b00010000000011110000111000001101 n!
#19
b00001101 4
b00001001 5
b00000101 6
b00000001 7
b00001110 8
b00001010 9
b00000110 :
b00000010 ;
b00001011 =
b00000111 >
b00000011 ?
b00001000 B
b00000100 C
b00001110 L
b00001111 P
b00001011 Q
b00010000 T
b00001100 U
b00001000 V
b00001101 X
b00001001 Y
b00000101 Z
b00001110 [
b00001010 \
b00000110 ]
b00000010 ^
b00001011 _
b00000111 `
b00000011 a
b00001000 c
b00000100 d
b00000000000000011010 k
b00000000000000100100 l
b00000000000000011110 m
b00000000000000001000 n
b00000000000001110110 o
b00000000000001011100 p
b00000000000000100010 q
b00000000000011000100 s
b00000000000001011000 t
b00000000000010110100 w
b00001110 ~
b00001111 #!
b00001011 $!
b00010000 &!
b00001100 '!
b00001000 (!
b00001101 *!
b00000000000000011010 +!
b00001001 .!
b00000000000000100100 /!
b00000101 2!
b00000000000000011110 3!
b00000001 6!
b00000000000000001000 7!
b00000000000000011010 9!
b00001010 :!
b00000000000001110110 ;!
b00000000000000100100 =!
b00000110 >!
b00000000000001011100 ?!
b00000000000000011110 A!
b00000010 B!
b00000000000000100010 C!
b00000000000000001000 E!
b00000000000001110110 I!
b00000111 J!
b00000000000011000100 K!
b00000000000001011100 M!
b00000011 N!
b00000000000001011000 O!
b00000000000000100010 Q!
b00000000000011000100 Y!
b00000100 Z!
b00000000000010110100 [!
b00000000000001011000 ]!
1i!
b00000000000000000000000000000000000000000000000000000000000000000000000010110100 o!
b00000000000000000000000000000000000000000000000000000000000000000000000010110100000000000000000000000000000000000000000000000000000001011000000000000000110001000000000000000000000000000000000000100010000000000000010111000000000000000111011000000000000000001000000000000000000111100000000000000010010000000000000000011010 r!
#20
b00000000 3
b00000000 G
b00000000 K
b00000000 O
b00000000 S
b00000000 W
0i!
b00000000000000000000000000000000 n!
#21
b00000000 4
b00001101 5
b00001001 6
b00000101 7
b00000000 8
b00001110 9
b00001010 :
b00000110 ;
b00000010 <
b00001111 =
b00001011 >
b00000111 ?
b00000011 @
b00001100 B
b00001000 C
b00000100 D
b00000000 L
b00000000 P
b00001111 Q
b00000000 T
b00010000 U
b00001100 V
b00000000 X
b00001101 Y
b00001001 Z
b00000000 [
b00001110 \
b00001010 ]
b00000110 ^
b00001111 _
b00001011 `
b00000111 a
b00000011 b
b00001100 c
b00001000 d
b00000100 e
b00000000000000000000 k
b00000000000000110100 l
b00000000000000110110 m
b00000000000000101000 n
b00000000000010100110 o
b00000000000010011100 p
b00000000000001110010 q
b00000000000000101000 r
b00000000000100111100 s
b00000000000011101000 t
b00000000000001100100 u
b00000000000110010100 w
b00000000000011001000 x
b00000000 ~
b00000000 #!
b00001111 $!
b00000000 &!
b00010000 '!
b00001100 (!
b00000000 *!
b00000000000000000000 +!
b00001101 .!
b00000000000000110100 /!
b00001001 2!
b00000000000000110110 3!
b00000101 6!
b00000000000000101000 7!
b00000000000000000000 9!
b00001110 :!
b00000000000010100110 ;!
b00000000000000110100 =!
b00001010 >!
b00000000000010011100 ?!
b00000000000000110110 A!
b00000110 B!
b00000000000001110010 C!
b00000000000000101000 E!
b00000010 F!
b00000000000000101000 G!
b00000000000010100110 I!
b00001011 J!
b00000000000100111100 K!
b00000000000010011100 M!
b00000111 N!
b00000000000011101000 O!
b00000000000001110010 Q!
b00000011 R!
b00000000000001100100 S!
b00000000000000101000 U!
b00000000000100111100 Y!
b00001000 Z!
b00000000000110010100 [!
b00000000000011101000 ]!
b00000100 ^!
b00000000000011001000 _!
b00000000000001100100 a!
1i!
b00000000000000000000000000000000000000000000000000001100100000000000000110010100 o!
b00000000000000000000000000000000000000000000000000001100100000000000000110010100000000000000000000000000000000000110010000000000000011101000000000000001001111000000000000000010100000000000000001110010000000000000100111000000000000001010011000000000000000101000000000000000001101100000000000000011010000000000000000000000 r!
#22
0i!
#23
b00000000 5
b00001101 6
b00001001 7
b00000000 9
b00001110 :
b00001010 ;
b00000110 <
b00000000 =
b00001111 >
b00001011 ?
b00000111 @
b00000011 A
b00010000 B
b00001100 C
b00001000 D
b00000100 E
b00000000 Q
b00000000 U
b00010000 V
b00000000 Y
b00001101 Z
b00000000 \
b00001110 ]
b00001010 ^
b00000000 _
b00001111 `
b00001011 a
b00000111 b
b00010000 c
b00001100 d
b00001000 e
b00000100 f
b00000000000000000000 l
b00000000000001001110 m
b00000000000001001000 n
b00000000000000000000 o
b00000000000011011100 p
b00000000000011000010 q
b00000000000010001000 r
b00000000000110110100 s
b00000000000101111000 t
b00000000000100001100 u
b00000000000001110000 v
b00000000001001110100 w
b00000000000111001000 x
b00000000000011011100 y
b00000000 $!
b00000000 '!
b00010000 (!
b00000000 .!
b00000000000000000000 /!
b00001101 2!
b00000000000001001110 3!
b00001001 6!
b00000000000001001000 7!
b00000000 :!
b00000000000000000000 ;!
b00000000000000000000 =!
b00001110 >!
b00000000000011011100 ?!
b00000000000001001110 A!
b00001010 B!
b00000000000011000010 C!
b00000000000001001000 E!
b00000110 F!
b00000000000010001000 G!
b00000000000000000000 I!
b00001111 J!
b00000000000110110100 K!
b00000000000011011100 M!
b00001011 N!
b00000000000101111000 O!
b00000000000011000010 Q!
b00000111 R!
b00000000000100001100 S!
b00000000000010001000 U!
b00000011 V!
b00000000000001110000 W!
b00000000000110110100 Y!
b00001100 Z!
b00000000001001110100 [!
b00000000000101111000 ]!
b00001000 ^!
b00000000000111001000 _!
b00000000000100001100 a!
b00000100 b!
b00000000000011011100 c!
b00000000000001110000 e!
1i!
b00000000000000000000000000000000110111000000000000011100100000000000001001110100 o!
b00000000000000000000000000000000110111000000000000011100100000000000001001110100000000000000011100000000000000010000110000000000000101111000000000000001101101000000000000001000100000000000000011000010000000000000110111000000000000000000000000000000000001001000000000000000010011100000000000000000000000000000000000000000 r!
#24
0i!
#25
b00000000 6
b00001101 7
b00000000 :
b00001110 ;
b00001010 <
b00000000 >
b00001111 ?
b00001011 @
b00000111 A
b00000000 B
b00010000 C
b00001100 D
b00001000 E
b00000100 F
b00000000 V
b00000000 Z
b00000000 ]
b00001110 ^
b00000000 `
b00001111 a
b00001011 b
b00000000 c
b00010000 d
b00001100 e
b00001000 f
b00000000000000000000 m
b00000000000001101000 n
b00000000000000000000 p
b00000000000100010010 q
b00000000000011101000 r
b00000000000000000000 s
b00000000001000001000 t
b00000000000110110100 u
b00000000000100110000 v
b00000000001101010100 w
b00000000001011001000 x
b00000000000111111100 y
b00000000000011110000 z
b00000000 (!
b00000000 2!
b00000000000000000000 3!
b00001101 6!
b00000000000001101000 7!
b00000000 >!
b00000000000000000000 ?!
b00000000000000000000 A!
b00001110 B!
b00000000000100010010 C!
b00000000000001101000 E!
b00001010 F!
b00000000000011101000 G!
b00000000 J!
b00000000000000000000 K!
b00000000000000000000 M!
b00001111 N!
b00000000001000001000 O!
b00000000000100010010 Q!
b00001011 R!
b00000000000110110100 S!
b00000000000011101000 U!
b00000111 V!
b00000000000100110000 W!
b00000000000000000000 Y!
b00010000 Z!
b00000000001101010100 [!
b00000000001000001000 ]!
b00001100 ^!
b00000000001011001000 _!
b00000000000110110100 a!
b00001000 b!
b00000000000111111100 c!
b00000000000100110000 e!
b00000100 f!
b00000000000011110000 g!
1i!
b00000000000011110000000000000001111111000000000000101100100000000000001101010100 o!
b00000000000011110000000000000001111111000000000000101100100000000000001101010100000000000001001100000000000000011011010000000000001000001000000000000000000000000000000000001110100000000000000100010010000000000000000000000000000000000000000000000000000001101000000000000000000000000000000000000000000000000000000000000000 r!
#26
0i!
#27
b00000000 7
b00000000 ;
b00001110 <
b00000000 ?
b00001111 @
b00001011 A
b00000000 C
b00010000 D
b00001100 E
b00001000 F
b00000000 ^
b00000000 a
b00001111 b
b00000000 d
b00010000 e
b00001100 f
b00000000000000000000 n
b00000000000000000000 q
b00000000000101001000 r
b00000000000000000000 t
b00000000001001011100 u
b00000000000111110000 v
b00000000000000000000 w
b00000000001111001000 x
b00000000001100011100 y
b00000000001000110000 z
b00000000 6!
b00000000000000000000 7!
b00000000 B!
b00000000000000000000 C!
b00000000000000000000 E!
b00001110 F!
b00000000000101001000 G!
b00000000 N!
b00000000000000000000 O!
b00000000000000000000 Q!
b00001111 R!
b00000000001001011100 S!
b00000000000101001000 U!
b00001011 V!
b00000000000111110000 W!
b00000000 Z!
b00000000000000000000 [!
b00000000000000000000 ]!
b00010000 ^!
b00000000001111001000 _!
b00000000001001011100 a!
b00001100 b!
b00000000001100011100 c!
b00000000000111110000 e!
b00001000 f!
b00000000001000110000 g!
1i!
b00000000001000110000000000000011000111000000000000111100100000000000000000000000 o!
b00000000001000110000000000000011000111000000000000111100100000000000000000000000000000000001111100000000000000100101110000000000000000000000000000000000000000000000000000010100100000000000000000000000000000000000000000000000000000000000000000000000000000000000000000000000000000000000000000000000000000000000000000000000 r!
#28
0i!
